%YAML 1.1
%TAG !u! tag:unity3d.com,2011:
--- !u!114 &11400000
MonoBehaviour:
  m_ObjectHideFlags: 0
  m_PrefabParentObject: {fileID: 0}
  m_PrefabInternal: {fileID: 0}
  m_GameObject: {fileID: 0}
  m_Enabled: 1
  m_EditorHideFlags: 0
  m_Script: {fileID: 11500000, guid: 5e76b99fe8f18a8429665c34e3dda687, type: 3}
  m_Name: Sand_to_Snow
  m_EditorClassIdentifier: 
  transitionTypeA: {fileID: 11400000, guid: 029aceb50eba034448eeea044ec2a61e, type: 2}
  transitionTypeB: {fileID: 11400000, guid: 4be768d650d0b9d4aa84d1e88415dc74, type: 2}
  prefab: {fileID: 0}
  cornerBigAPrefab: {fileID: 0}
  cornerBigBPrefab: {fileID: 0}
