%YAML 1.1
%TAG !u! tag:unity3d.com,2011:
--- !u!114 &11400000
MonoBehaviour:
  m_ObjectHideFlags: 0
  m_PrefabParentObject: {fileID: 0}
  m_PrefabInternal: {fileID: 0}
  m_GameObject: {fileID: 0}
  m_Enabled: 1
  m_EditorHideFlags: 0
  m_Script: {fileID: 11500000, guid: f044e247a13d2e44b8fe16d0a8c9e18b, type: 3}
  m_Name: Tiger Map Maker Assets
  m_EditorClassIdentifier: 
  terrainTypes:
  - {fileID: 11400000, guid: 2fb0f12795aec064b9e16daa377fedd7, type: 2}
  - {fileID: 11400000, guid: 029aceb50eba034448eeea044ec2a61e, type: 2}
  - {fileID: 11400000, guid: 4be768d650d0b9d4aa84d1e88415dc74, type: 2}
  - {fileID: 11400000, guid: 5ea7ea6ffa0226840b1f83b6b3d4e9f1, type: 2}
  terrainTypeTransitions:
  - {fileID: 11400000, guid: 3e184c74a354c9c46811179a2ff0d348, type: 2}
  - {fileID: 11400000, guid: b7927bd458075df4389023fe8e8bf982, type: 2}
  - {fileID: 11400000, guid: e6b09e8ed4ffee7489554ec206c38fb9, type: 2}
  - {fileID: 11400000, guid: 7cbd7a372161d8947b5d52f7a561c063, type: 2}
  - {fileID: 11400000, guid: fc5ec9aed7a9ac944a37827291d94046, type: 2}
  - {fileID: 11400000, guid: 581cfa7c7d62caf4690720800154eeaf, type: 2}
